<?xml version="1.0" ?>
<sdf version="1.4">
  <world name="table2018">

    <include>
      <uri>model://sun</uri>
    </include>

    <model name="table">
       <pose>-0.022 0.022 -0.00001  0 0 0</pose>
      <static>true</static>
      <link name="body">
        <visual name="visual">
          <geometry>
            <mesh><uri>model://table2018/meshes/RobotCities.stl</uri></mesh>
          </geometry>
        </visual>
        <collision name="collision">
          <geometry>
            <mesh><uri>model://table2018/meshes/RobotCities.stl</uri></mesh>
          </geometry>
        </collision>
      </link>
    </model>

  </world>
</sdf>
