<?xml version="1.0"?>
<robot name="orange_ball">

  <material name="orange">
    <color rgba="1 0.30 0 1"/>
  </material>

  <link name="base_link">
    <visual>
      <geometry>
        <sphere radius="0.044"/>
      </geometry>
      <material name="orange"/>
    </visual>
    <collision>
    </collision>
    <inertial>
      <mass value="0.001"/>
      <inertia ixx="0.00000077" ixy="0.0" ixz="0.0" iyy="0.00000077" iyz="0.0" izz="0.00000077"/>
    </inertial>
  </link>
</robot>
